{
  "page": 1,
  "per_page": 15,
  "photos": [
      {
          "id": 1181789,
          "width": 4236,
          "height": 2824,
          "url": "https://www.pexels.com/photo/beatles-vinyls-1181789/",
          "photographer": "Mike",
          "photographer_url": "https://www.pexels.com/@mike-468229",
          "photographer_id": 468229,
          "avg_color": "#89838B",
          "src": {
              "original": "https://images.pexels.com/photos/1181789/pexels-photo-1181789.jpeg",
              "large2x": "https://images.pexels.com/photos/1181789/pexels-photo-1181789.jpeg?auto=compress&cs=tinysrgb&dpr=2&h=650&w=940",
              "large": "https://images.pexels.com/photos/1181789/pexels-photo-1181789.jpeg?auto=compress&cs=tinysrgb&h=650&w=940",
              "medium": "https://images.pexels.com/photos/1181789/pexels-photo-1181789.jpeg?auto=compress&cs=tinysrgb&h=350",
              "small": "https://images.pexels.com/photos/1181789/pexels-photo-1181789.jpeg?auto=compress&cs=tinysrgb&h=130",
              "portrait": "https://images.pexels.com/photos/1181789/pexels-photo-1181789.jpeg?auto=compress&cs=tinysrgb&fit=crop&h=1200&w=800",
              "landscape": "https://images.pexels.com/photos/1181789/pexels-photo-1181789.jpeg?auto=compress&cs=tinysrgb&fit=crop&h=627&w=1200",
              "tiny": "https://images.pexels.com/photos/1181789/pexels-photo-1181789.jpeg?auto=compress&cs=tinysrgb&dpr=1&fit=crop&h=200&w=280"
          },
          "liked": false,
          "alt": "Beatles Vinyls"
      },
      {
          "id": 14994003,
          "width": 2938,
          "height": 2912,
          "url": "https://www.pexels.com/photo/man-and-wall-full-of-poster-14994003/",
          "photographer": "Sam Jotham Sutharson",
          "photographer_url": "https://www.pexels.com/@jothamsutharson",
          "photographer_id": 381183,
          "avg_color": "#482C20",
          "src": {
              "original": "https://images.pexels.com/photos/14994003/pexels-photo-14994003.jpeg",
              "large2x": "https://images.pexels.com/photos/14994003/pexels-photo-14994003.jpeg?auto=compress&cs=tinysrgb&dpr=2&h=650&w=940",
              "large": "https://images.pexels.com/photos/14994003/pexels-photo-14994003.jpeg?auto=compress&cs=tinysrgb&h=650&w=940",
              "medium": "https://images.pexels.com/photos/14994003/pexels-photo-14994003.jpeg?auto=compress&cs=tinysrgb&h=350",
              "small": "https://images.pexels.com/photos/14994003/pexels-photo-14994003.jpeg?auto=compress&cs=tinysrgb&h=130",
              "portrait": "https://images.pexels.com/photos/14994003/pexels-photo-14994003.jpeg?auto=compress&cs=tinysrgb&fit=crop&h=1200&w=800",
              "landscape": "https://images.pexels.com/photos/14994003/pexels-photo-14994003.jpeg?auto=compress&cs=tinysrgb&fit=crop&h=627&w=1200",
              "tiny": "https://images.pexels.com/photos/14994003/pexels-photo-14994003.jpeg?auto=compress&cs=tinysrgb&dpr=1&fit=crop&h=200&w=280"
          },
          "liked": false,
          "alt": "Man and Wall Full of Poster"
      },
      {
          "id": 23834957,
          "width": 2764,
          "height": 2764,
          "url": "https://www.pexels.com/photo/black-and-white-photo-of-the-beatles-statue-in-liverpool-england-23834957/",
          "photographer": "Ivan Dražić",
          "photographer_url": "https://www.pexels.com/@ivan-drazic-20457695",
          "photographer_id": 20457695,
          "avg_color": "#8E8E8E",
          "src": {
              "original": "https://images.pexels.com/photos/23834957/pexels-photo-23834957.jpeg",
              "large2x": "https://images.pexels.com/photos/23834957/pexels-photo-23834957.jpeg?auto=compress&cs=tinysrgb&dpr=2&h=650&w=940",
              "large": "https://images.pexels.com/photos/23834957/pexels-photo-23834957.jpeg?auto=compress&cs=tinysrgb&h=650&w=940",
              "medium": "https://images.pexels.com/photos/23834957/pexels-photo-23834957.jpeg?auto=compress&cs=tinysrgb&h=350",
              "small": "https://images.pexels.com/photos/23834957/pexels-photo-23834957.jpeg?auto=compress&cs=tinysrgb&h=130",
              "portrait": "https://images.pexels.com/photos/23834957/pexels-photo-23834957.jpeg?auto=compress&cs=tinysrgb&fit=crop&h=1200&w=800",
              "landscape": "https://images.pexels.com/photos/23834957/pexels-photo-23834957.jpeg?auto=compress&cs=tinysrgb&fit=crop&h=627&w=1200",
              "tiny": "https://images.pexels.com/photos/23834957/pexels-photo-23834957.jpeg?auto=compress&cs=tinysrgb&dpr=1&fit=crop&h=200&w=280"
          },
          "liked": false,
          "alt": "Black and White Photo of the Beatles Statue in Liverpool, England "
      },
      {
          "id": 15530462,
          "width": 2448,
          "height": 3264,
          "url": "https://www.pexels.com/photo/sign-saying-let-it-be-15530462/",
          "photographer": "Tanuj Matta",
          "photographer_url": "https://www.pexels.com/@tanuj-matta-2125119",
          "photographer_id": 2125119,
          "avg_color": "#918C86",
          "src": {
              "original": "https://images.pexels.com/photos/15530462/pexels-photo-15530462.jpeg",
              "large2x": "https://images.pexels.com/photos/15530462/pexels-photo-15530462.jpeg?auto=compress&cs=tinysrgb&dpr=2&h=650&w=940",
              "large": "https://images.pexels.com/photos/15530462/pexels-photo-15530462.jpeg?auto=compress&cs=tinysrgb&h=650&w=940",
              "medium": "https://images.pexels.com/photos/15530462/pexels-photo-15530462.jpeg?auto=compress&cs=tinysrgb&h=350",
              "small": "https://images.pexels.com/photos/15530462/pexels-photo-15530462.jpeg?auto=compress&cs=tinysrgb&h=130",
              "portrait": "https://images.pexels.com/photos/15530462/pexels-photo-15530462.jpeg?auto=compress&cs=tinysrgb&fit=crop&h=1200&w=800",
              "landscape": "https://images.pexels.com/photos/15530462/pexels-photo-15530462.jpeg?auto=compress&cs=tinysrgb&fit=crop&h=627&w=1200",
              "tiny": "https://images.pexels.com/photos/15530462/pexels-photo-15530462.jpeg?auto=compress&cs=tinysrgb&dpr=1&fit=crop&h=200&w=280"
          },
          "liked": false,
          "alt": "Sign Saying Let It Be"
      },
      {
          "id": 13677880,
          "width": 2400,
          "height": 3000,
          "url": "https://www.pexels.com/photo/a-woman-in-a-black-hoodie-13677880/",
          "photographer": "ab_h_i s_h_ek_09",
          "photographer_url": "https://www.pexels.com/@ab_h_i-s_h_ek_09-283673767",
          "photographer_id": 283673767,
          "avg_color": "#5E715E",
          "src": {
              "original": "https://images.pexels.com/photos/13677880/pexels-photo-13677880.jpeg",
              "large2x": "https://images.pexels.com/photos/13677880/pexels-photo-13677880.jpeg?auto=compress&cs=tinysrgb&dpr=2&h=650&w=940",
              "large": "https://images.pexels.com/photos/13677880/pexels-photo-13677880.jpeg?auto=compress&cs=tinysrgb&h=650&w=940",
              "medium": "https://images.pexels.com/photos/13677880/pexels-photo-13677880.jpeg?auto=compress&cs=tinysrgb&h=350",
              "small": "https://images.pexels.com/photos/13677880/pexels-photo-13677880.jpeg?auto=compress&cs=tinysrgb&h=130",
              "portrait": "https://images.pexels.com/photos/13677880/pexels-photo-13677880.jpeg?auto=compress&cs=tinysrgb&fit=crop&h=1200&w=800",
              "landscape": "https://images.pexels.com/photos/13677880/pexels-photo-13677880.jpeg?auto=compress&cs=tinysrgb&fit=crop&h=627&w=1200",
              "tiny": "https://images.pexels.com/photos/13677880/pexels-photo-13677880.jpeg?auto=compress&cs=tinysrgb&dpr=1&fit=crop&h=200&w=280"
          },
          "liked": false,
          "alt": "A Woman in a Black Hoodie "
      },
      {
          "id": 13677952,
          "width": 2000,
          "height": 3000,
          "url": "https://www.pexels.com/photo/portrait-of-a-woman-in-a-black-hoodie-13677952/",
          "photographer": "ab_h_i s_h_ek_09",
          "photographer_url": "https://www.pexels.com/@ab_h_i-s_h_ek_09-283673767",
          "photographer_id": 283673767,
          "avg_color": "#3E4B39",
          "src": {
              "original": "https://images.pexels.com/photos/13677952/pexels-photo-13677952.jpeg",
              "large2x": "https://images.pexels.com/photos/13677952/pexels-photo-13677952.jpeg?auto=compress&cs=tinysrgb&dpr=2&h=650&w=940",
              "large": "https://images.pexels.com/photos/13677952/pexels-photo-13677952.jpeg?auto=compress&cs=tinysrgb&h=650&w=940",
              "medium": "https://images.pexels.com/photos/13677952/pexels-photo-13677952.jpeg?auto=compress&cs=tinysrgb&h=350",
              "small": "https://images.pexels.com/photos/13677952/pexels-photo-13677952.jpeg?auto=compress&cs=tinysrgb&h=130",
              "portrait": "https://images.pexels.com/photos/13677952/pexels-photo-13677952.jpeg?auto=compress&cs=tinysrgb&fit=crop&h=1200&w=800",
              "landscape": "https://images.pexels.com/photos/13677952/pexels-photo-13677952.jpeg?auto=compress&cs=tinysrgb&fit=crop&h=627&w=1200",
              "tiny": "https://images.pexels.com/photos/13677952/pexels-photo-13677952.jpeg?auto=compress&cs=tinysrgb&dpr=1&fit=crop&h=200&w=280"
          },
          "liked": false,
          "alt": "Portrait of a Woman in a Black Hoodie "
      },
      {
          "id": 28192772,
          "width": 8242,
          "height": 5495,
          "url": "https://www.pexels.com/photo/isa-my-honor-to-take-your-picture-28192772/",
          "photographer": "Quang Vuong",
          "photographer_url": "https://www.pexels.com/@quang-vuong-724225078",
          "photographer_id": 724225078,
          "avg_color": "#84836E",
          "src": {
              "original": "https://images.pexels.com/photos/28192772/pexels-photo-28192772.jpeg",
              "large2x": "https://images.pexels.com/photos/28192772/pexels-photo-28192772.jpeg?auto=compress&cs=tinysrgb&dpr=2&h=650&w=940",
              "large": "https://images.pexels.com/photos/28192772/pexels-photo-28192772.jpeg?auto=compress&cs=tinysrgb&h=650&w=940",
              "medium": "https://images.pexels.com/photos/28192772/pexels-photo-28192772.jpeg?auto=compress&cs=tinysrgb&h=350",
              "small": "https://images.pexels.com/photos/28192772/pexels-photo-28192772.jpeg?auto=compress&cs=tinysrgb&h=130",
              "portrait": "https://images.pexels.com/photos/28192772/pexels-photo-28192772.jpeg?auto=compress&cs=tinysrgb&fit=crop&h=1200&w=800",
              "landscape": "https://images.pexels.com/photos/28192772/pexels-photo-28192772.jpeg?auto=compress&cs=tinysrgb&fit=crop&h=627&w=1200",
              "tiny": "https://images.pexels.com/photos/28192772/pexels-photo-28192772.jpeg?auto=compress&cs=tinysrgb&dpr=1&fit=crop&h=200&w=280"
          },
          "liked": false,
          "alt": "ISA, my honor to take your picture"
      },
      {
          "id": 6627233,
          "width": 4480,
          "height": 6720,
          "url": "https://www.pexels.com/photo/a-close-up-shot-of-a-person-touching-a-vintage-collection-6627233/",
          "photographer": "KoolShooters",
          "photographer_url": "https://www.pexels.com/@koolshooters",
          "photographer_id": 3798027,
          "avg_color": "#4B3627",
          "src": {
              "original": "https://images.pexels.com/photos/6627233/pexels-photo-6627233.jpeg",
              "large2x": "https://images.pexels.com/photos/6627233/pexels-photo-6627233.jpeg?auto=compress&cs=tinysrgb&dpr=2&h=650&w=940",
              "large": "https://images.pexels.com/photos/6627233/pexels-photo-6627233.jpeg?auto=compress&cs=tinysrgb&h=650&w=940",
              "medium": "https://images.pexels.com/photos/6627233/pexels-photo-6627233.jpeg?auto=compress&cs=tinysrgb&h=350",
              "small": "https://images.pexels.com/photos/6627233/pexels-photo-6627233.jpeg?auto=compress&cs=tinysrgb&h=130",
              "portrait": "https://images.pexels.com/photos/6627233/pexels-photo-6627233.jpeg?auto=compress&cs=tinysrgb&fit=crop&h=1200&w=800",
              "landscape": "https://images.pexels.com/photos/6627233/pexels-photo-6627233.jpeg?auto=compress&cs=tinysrgb&fit=crop&h=627&w=1200",
              "tiny": "https://images.pexels.com/photos/6627233/pexels-photo-6627233.jpeg?auto=compress&cs=tinysrgb&dpr=1&fit=crop&h=200&w=280"
          },
          "liked": false,
          "alt": "\r\nA Close-Up Shot of a Person Touching a Vintage Collection "
      },
      {
          "id": 19588319,
          "width": 5181,
          "height": 3872,
          "url": "https://www.pexels.com/photo/the-beatles-statue-on-a-street-in-liverpool-in-black-and-white-19588319/",
          "photographer": "William Warby",
          "photographer_url": "https://www.pexels.com/@wwarby",
          "photographer_id": 836552064,
          "avg_color": "#707070",
          "src": {
              "original": "https://images.pexels.com/photos/19588319/pexels-photo-19588319.jpeg",
              "large2x": "https://images.pexels.com/photos/19588319/pexels-photo-19588319.jpeg?auto=compress&cs=tinysrgb&dpr=2&h=650&w=940",
              "large": "https://images.pexels.com/photos/19588319/pexels-photo-19588319.jpeg?auto=compress&cs=tinysrgb&h=650&w=940",
              "medium": "https://images.pexels.com/photos/19588319/pexels-photo-19588319.jpeg?auto=compress&cs=tinysrgb&h=350",
              "small": "https://images.pexels.com/photos/19588319/pexels-photo-19588319.jpeg?auto=compress&cs=tinysrgb&h=130",
              "portrait": "https://images.pexels.com/photos/19588319/pexels-photo-19588319.jpeg?auto=compress&cs=tinysrgb&fit=crop&h=1200&w=800",
              "landscape": "https://images.pexels.com/photos/19588319/pexels-photo-19588319.jpeg?auto=compress&cs=tinysrgb&fit=crop&h=627&w=1200",
              "tiny": "https://images.pexels.com/photos/19588319/pexels-photo-19588319.jpeg?auto=compress&cs=tinysrgb&dpr=1&fit=crop&h=200&w=280"
          },
          "liked": false,
          "alt": "The Beatles Statue on a Street in Liverpool in Black and White "
      },
      {
          "id": 28126365,
          "width": 4160,
          "height": 6240,
          "url": "https://www.pexels.com/photo/a-wall-with-posters-and-a-bar-28126365/",
          "photographer": "Alex Quezada",
          "photographer_url": "https://www.pexels.com/@alexquezada",
          "photographer_id": 24040751,
          "avg_color": "#3D4432",
          "src": {
              "original": "https://images.pexels.com/photos/28126365/pexels-photo-28126365.jpeg",
              "large2x": "https://images.pexels.com/photos/28126365/pexels-photo-28126365.jpeg?auto=compress&cs=tinysrgb&dpr=2&h=650&w=940",
              "large": "https://images.pexels.com/photos/28126365/pexels-photo-28126365.jpeg?auto=compress&cs=tinysrgb&h=650&w=940",
              "medium": "https://images.pexels.com/photos/28126365/pexels-photo-28126365.jpeg?auto=compress&cs=tinysrgb&h=350",
              "small": "https://images.pexels.com/photos/28126365/pexels-photo-28126365.jpeg?auto=compress&cs=tinysrgb&h=130",
              "portrait": "https://images.pexels.com/photos/28126365/pexels-photo-28126365.jpeg?auto=compress&cs=tinysrgb&fit=crop&h=1200&w=800",
              "landscape": "https://images.pexels.com/photos/28126365/pexels-photo-28126365.jpeg?auto=compress&cs=tinysrgb&fit=crop&h=627&w=1200",
              "tiny": "https://images.pexels.com/photos/28126365/pexels-photo-28126365.jpeg?auto=compress&cs=tinysrgb&dpr=1&fit=crop&h=200&w=280"
          },
          "liked": false,
          "alt": "A wall with posters and a bar"
      },
      {
          "id": 19760454,
          "width": 3472,
          "height": 4640,
          "url": "https://www.pexels.com/photo/pictures-of-the-beatles-in-cafe-19760454/",
          "photographer": "Milica Dukić",
          "photographer_url": "https://www.pexels.com/@milica-dukic-404395131",
          "photographer_id": 404395131,
          "avg_color": "#643B1B",
          "src": {
              "original": "https://images.pexels.com/photos/19760454/pexels-photo-19760454.jpeg",
              "large2x": "https://images.pexels.com/photos/19760454/pexels-photo-19760454.jpeg?auto=compress&cs=tinysrgb&dpr=2&h=650&w=940",
              "large": "https://images.pexels.com/photos/19760454/pexels-photo-19760454.jpeg?auto=compress&cs=tinysrgb&h=650&w=940",
              "medium": "https://images.pexels.com/photos/19760454/pexels-photo-19760454.jpeg?auto=compress&cs=tinysrgb&h=350",
              "small": "https://images.pexels.com/photos/19760454/pexels-photo-19760454.jpeg?auto=compress&cs=tinysrgb&h=130",
              "portrait": "https://images.pexels.com/photos/19760454/pexels-photo-19760454.jpeg?auto=compress&cs=tinysrgb&fit=crop&h=1200&w=800",
              "landscape": "https://images.pexels.com/photos/19760454/pexels-photo-19760454.jpeg?auto=compress&cs=tinysrgb&fit=crop&h=627&w=1200",
              "tiny": "https://images.pexels.com/photos/19760454/pexels-photo-19760454.jpeg?auto=compress&cs=tinysrgb&dpr=1&fit=crop&h=200&w=280"
          },
          "liked": false,
          "alt": "Pictures of The Beatles in Cafe"
      },
      {
          "id": 13516642,
          "width": 6000,
          "height": 4000,
          "url": "https://www.pexels.com/photo/the-beatles-monument-in-liverpool-13516642/",
          "photographer": "Mike Bird",
          "photographer_url": "https://www.pexels.com/@mikebirdy",
          "photographer_id": 20649,
          "avg_color": "#60625F",
          "src": {
              "original": "https://images.pexels.com/photos/13516642/pexels-photo-13516642.jpeg",
              "large2x": "https://images.pexels.com/photos/13516642/pexels-photo-13516642.jpeg?auto=compress&cs=tinysrgb&dpr=2&h=650&w=940",
              "large": "https://images.pexels.com/photos/13516642/pexels-photo-13516642.jpeg?auto=compress&cs=tinysrgb&h=650&w=940",
              "medium": "https://images.pexels.com/photos/13516642/pexels-photo-13516642.jpeg?auto=compress&cs=tinysrgb&h=350",
              "small": "https://images.pexels.com/photos/13516642/pexels-photo-13516642.jpeg?auto=compress&cs=tinysrgb&h=130",
              "portrait": "https://images.pexels.com/photos/13516642/pexels-photo-13516642.jpeg?auto=compress&cs=tinysrgb&fit=crop&h=1200&w=800",
              "landscape": "https://images.pexels.com/photos/13516642/pexels-photo-13516642.jpeg?auto=compress&cs=tinysrgb&fit=crop&h=627&w=1200",
              "tiny": "https://images.pexels.com/photos/13516642/pexels-photo-13516642.jpeg?auto=compress&cs=tinysrgb&dpr=1&fit=crop&h=200&w=280"
          },
          "liked": false,
          "alt": "The Beatles Monument in Liverpool "
      },
      {
          "id": 17686599,
          "width": 2688,
          "height": 3932,
          "url": "https://www.pexels.com/photo/beatles-statue-in-liverpool-17686599/",
          "photographer": "Amanda Malec",
          "photographer_url": "https://www.pexels.com/@amanda-malec-237904499",
          "photographer_id": 237904499,
          "avg_color": "#959794",
          "src": {
              "original": "https://images.pexels.com/photos/17686599/pexels-photo-17686599.jpeg",
              "large2x": "https://images.pexels.com/photos/17686599/pexels-photo-17686599.jpeg?auto=compress&cs=tinysrgb&dpr=2&h=650&w=940",
              "large": "https://images.pexels.com/photos/17686599/pexels-photo-17686599.jpeg?auto=compress&cs=tinysrgb&h=650&w=940",
              "medium": "https://images.pexels.com/photos/17686599/pexels-photo-17686599.jpeg?auto=compress&cs=tinysrgb&h=350",
              "small": "https://images.pexels.com/photos/17686599/pexels-photo-17686599.jpeg?auto=compress&cs=tinysrgb&h=130",
              "portrait": "https://images.pexels.com/photos/17686599/pexels-photo-17686599.jpeg?auto=compress&cs=tinysrgb&fit=crop&h=1200&w=800",
              "landscape": "https://images.pexels.com/photos/17686599/pexels-photo-17686599.jpeg?auto=compress&cs=tinysrgb&fit=crop&h=627&w=1200",
              "tiny": "https://images.pexels.com/photos/17686599/pexels-photo-17686599.jpeg?auto=compress&cs=tinysrgb&dpr=1&fit=crop&h=200&w=280"
          },
          "liked": false,
          "alt": "Beatles Statue in Liverpool"
      },
      {
          "id": 6131932,
          "width": 5184,
          "height": 3456,
          "url": "https://www.pexels.com/photo/woman-in-black-framed-eyeglasses-holding-red-and-white-labeled-box-6131932/",
          "photographer": "Mick Haupt",
          "photographer_url": "https://www.pexels.com/@mickhaupt",
          "photographer_id": 1525940,
          "avg_color": "#62574B",
          "src": {
              "original": "https://images.pexels.com/photos/6131932/pexels-photo-6131932.jpeg",
              "large2x": "https://images.pexels.com/photos/6131932/pexels-photo-6131932.jpeg?auto=compress&cs=tinysrgb&dpr=2&h=650&w=940",
              "large": "https://images.pexels.com/photos/6131932/pexels-photo-6131932.jpeg?auto=compress&cs=tinysrgb&h=650&w=940",
              "medium": "https://images.pexels.com/photos/6131932/pexels-photo-6131932.jpeg?auto=compress&cs=tinysrgb&h=350",
              "small": "https://images.pexels.com/photos/6131932/pexels-photo-6131932.jpeg?auto=compress&cs=tinysrgb&h=130",
              "portrait": "https://images.pexels.com/photos/6131932/pexels-photo-6131932.jpeg?auto=compress&cs=tinysrgb&fit=crop&h=1200&w=800",
              "landscape": "https://images.pexels.com/photos/6131932/pexels-photo-6131932.jpeg?auto=compress&cs=tinysrgb&fit=crop&h=627&w=1200",
              "tiny": "https://images.pexels.com/photos/6131932/pexels-photo-6131932.jpeg?auto=compress&cs=tinysrgb&dpr=1&fit=crop&h=200&w=280"
          },
          "liked": false,
          "alt": "Woman in Black Framed Eyeglasses Holding Red and White Labeled Box"
      },
      {
          "id": 13516614,
          "width": 6000,
          "height": 3376,
          "url": "https://www.pexels.com/photo/monument-on-a-tenement-in-liverpool-13516614/",
          "photographer": "Mike Bird",
          "photographer_url": "https://www.pexels.com/@mikebirdy",
          "photographer_id": 20649,
          "avg_color": "#6F6F65",
          "src": {
              "original": "https://images.pexels.com/photos/13516614/pexels-photo-13516614.jpeg",
              "large2x": "https://images.pexels.com/photos/13516614/pexels-photo-13516614.jpeg?auto=compress&cs=tinysrgb&dpr=2&h=650&w=940",
              "large": "https://images.pexels.com/photos/13516614/pexels-photo-13516614.jpeg?auto=compress&cs=tinysrgb&h=650&w=940",
              "medium": "https://images.pexels.com/photos/13516614/pexels-photo-13516614.jpeg?auto=compress&cs=tinysrgb&h=350",
              "small": "https://images.pexels.com/photos/13516614/pexels-photo-13516614.jpeg?auto=compress&cs=tinysrgb&h=130",
              "portrait": "https://images.pexels.com/photos/13516614/pexels-photo-13516614.jpeg?auto=compress&cs=tinysrgb&fit=crop&h=1200&w=800",
              "landscape": "https://images.pexels.com/photos/13516614/pexels-photo-13516614.jpeg?auto=compress&cs=tinysrgb&fit=crop&h=627&w=1200",
              "tiny": "https://images.pexels.com/photos/13516614/pexels-photo-13516614.jpeg?auto=compress&cs=tinysrgb&dpr=1&fit=crop&h=200&w=280"
          },
          "liked": false,
          "alt": "Monument on a Tenement in Liverpool "
      }
  ],
  "total_results": 21,
  "next_page": "https://api.pexels.com/v1/search/?page=2&per_page=15&query=The+Beatles"
}